05_analysis.qmd
…
#Analyzing the correlation between Obesity and diabetes

data |>
   select(BMI_class, Outcome)

# A tibble: 768 × 2
   BMI_class  Outcome 
   <chr>      <fct>   
 1 Obese      Diabetes
 2 Overweight Healthy 
 3 Healthy    Diabetes
 4 Overweight Healthy 
 5 Obese      Diabetes
 6 Overweight Healthy 
 7 Obese      Diabetes
 8 Obese      Healthy 
 9 Obese      Diabetes
10 <NA>       Diabetes
# ℹ 758 more rows
…
